<?xml version="1.0" encoding="UTF-8" standalone="no"?>
<svg
   xmlns:dc="http://purl.org/dc/elements/1.1/"
   xmlns:cc="http://creativecommons.org/ns#"
   xmlns:rdf="http://www.w3.org/1999/02/22-rdf-syntax-ns#"
   xmlns:svg="http://www.w3.org/2000/svg"
   xmlns="http://www.w3.org/2000/svg"
   xmlns:sodipodi="http://sodipodi.sourceforge.net/DTD/sodipodi-0.dtd"
   xmlns:inkscape="http://www.inkscape.org/namespaces/inkscape"
   width="1282"
   height="1922"
   viewBox="0 0 339.19584 508.52918"
   version="1.1"
   id="svg8"
   inkscape:version="1.0 (4035a4fb49, 2020-05-01)"
   sodipodi:docname="cohope-splash.svg"
   inkscape:export-filename="/data/devel/ads-covid19/cohope-client/android/res/drawable-xxxhdpi/splash.png"
   inkscape:export-xdpi="96"
   inkscape:export-ydpi="96">
  <defs
     id="defs2">
    <linearGradient
       id="id0"
       gradientUnits="userSpaceOnUse"
       x1="228.908"
       y1="95.584999"
       x2="228.908"
       y2="185.224">
      <stop
         offset="0"
         style="stop-color:#3A7CCB"
         id="stop4156" />
      <stop
         offset="0.85098"
         style="stop-color:#336DB2"
         id="stop4158" />
      <stop
         offset="1"
         style="stop-color:#2C5D98"
         id="stop4160" />
    </linearGradient>
    <linearGradient
       id="id1"
       gradientUnits="userSpaceOnUse"
       x1="158.80299"
       y1="32.5331"
       x2="158.80299"
       y2="122.172">
      <stop
         offset="0"
         style="stop-color:#FF8F1C"
         id="stop4163" />
      <stop
         offset="0.85098"
         style="stop-color:#E57E18"
         id="stop4165" />
      <stop
         offset="1"
         style="stop-color:#CB6C13"
         id="stop4167" />
    </linearGradient>
  </defs>
  <sodipodi:namedview
     id="base"
     pagecolor="#ffffff"
     bordercolor="#666666"
     borderopacity="1.0"
     inkscape:pageopacity="0"
     inkscape:pageshadow="2"
     inkscape:zoom="0.20310194"
     inkscape:cx="-134.33885"
     inkscape:cy="1036.0031"
     inkscape:document-units="mm"
     inkscape:current-layer="layer1"
     showgrid="false"
     inkscape:window-width="1366"
     inkscape:window-height="703"
     inkscape:window-x="0"
     inkscape:window-y="0"
     inkscape:window-maximized="1"
     units="px"
     inkscape:document-rotation="0" />
  <metadata
     id="metadata5">
    <rdf:RDF>
      <cc:Work
         rdf:about="">
        <dc:format>image/svg+xml</dc:format>
        <dc:type
           rdf:resource="http://purl.org/dc/dcmitype/StillImage" />
        <dc:title />
      </cc:Work>
    </rdf:RDF>
  </metadata>
  <g
     inkscape:label="Layer 1"
     inkscape:groupmode="layer"
     id="layer1"
     transform="translate(0,-169.47081)">
    <rect
       style="fill:#f2f2f2;fill-opacity:1;stroke:none;stroke-width:0.709691;stroke-miterlimit:4;stroke-dasharray:none;stroke-opacity:1"
       id="rect818"
       width="339.19583"
       height="508.52917"
       x="1.0172525e-06"
       y="169.47083"
       inkscape:export-filename="/data/devel/emile2-gitlab/emile-client/android/res/drawable-xxxhdpi/splash.png"
       inkscape:export-xdpi="96"
       inkscape:export-ydpi="96" />
    <g
       id="g4589"
       transform="matrix(2.848022,0,0,3.0328899,-180.71862,-73.545557)"
       inkscape:export-filename="/data/devel/emile2-gitlab/emile-client/images/emile-logo.png"
       inkscape:export-xdpi="389.76001"
       inkscape:export-ydpi="389.76001">
      <text
         id="text4557"
         y="155.04565"
         x="94.076782"
         style="font-style:normal;font-weight:normal;font-size:18.3487px;line-height:1.25;font-family:sans-serif;letter-spacing:0px;word-spacing:0px;fill:#414141;fill-opacity:1;stroke:none;stroke-width:0.458719"
         xml:space="preserve"><tspan
           style="font-style:normal;font-variant:normal;font-weight:normal;font-stretch:normal;font-size:18.3487px;font-family:'Dream Orphanage';-inkscape-font-specification:'Dream Orphanage, Normal';font-variant-ligatures:normal;font-variant-caps:normal;font-variant-numeric:normal;font-feature-settings:normal;text-align:start;writing-mode:lr-tb;text-anchor:start;fill:#414141;fill-opacity:1;stroke-width:0.458719"
           y="155.04565"
           x="94.076782"
           id="tspan4555"
           sodipodi:role="line"><tspan
             style="font-style:normal;font-variant:normal;font-weight:bold;font-stretch:normal;font-size:18.3487px;font-family:'Titillium Web';-inkscape-font-specification:'Titillium Web, Bold';font-variant-ligatures:normal;font-variant-caps:normal;font-variant-numeric:normal;font-variant-east-asian:normal"
             id="tspan869">Co</tspan><tspan
             style="font-style:normal;font-variant:normal;font-weight:300;font-stretch:normal;font-size:18.3487px;font-family:'Titillium Web';-inkscape-font-specification:'Titillium Web, Light';font-variant-ligatures:normal;font-variant-caps:normal;font-variant-numeric:normal;font-variant-east-asian:normal"
             id="tspan875">hope</tspan></tspan></text>
    </g>
    <text
       xml:space="preserve"
       style="font-style:normal;font-weight:normal;font-size:6.09571px;line-height:1.25;font-family:sans-serif;letter-spacing:0px;word-spacing:0px;fill:#414141;fill-opacity:1;stroke:none;stroke-width:0.152393"
       x="168.70537"
       y="474.3168"
       id="text830"
       transform="scale(0.96904362,1.0319453)"><tspan
         sodipodi:role="line"
         id="tspan828"
         x="168.70537"
         y="474.3168"
         style="font-style:normal;font-variant:normal;font-weight:normal;font-stretch:normal;font-size:12.0428px;font-family:'Titillium Web';-inkscape-font-specification:'Titillium Web, Normal';font-variant-ligatures:normal;font-variant-caps:normal;font-variant-numeric:normal;font-feature-settings:normal;text-align:start;writing-mode:lr-tb;text-anchor:start;fill:#414141;fill-opacity:1;stroke-width:0.152393">by</tspan></text>
    <g
       id="g1691"
       transform="matrix(1.0018868,0,0,1.0018868,131.2958,461.67433)"
       style="fill:#414141;fill-opacity:1">
      <g
         id="g1529"
         style="fill:#414141;fill-opacity:1">
        <rect
           style="fill:#414141;fill-opacity:1;fill-rule:evenodd;stroke:none;stroke-width:0.0641325"
           id="rect2816-4-4-5-1-7-80"
           width="7.9524274"
           height="7.9524274"
           x="34.271732"
           y="47.958183"
           ry="1.8027537"
           rx="1.5774096" />
        <rect
           style="fill:#414141;fill-opacity:1;fill-rule:evenodd;stroke-width:0.0641325"
           id="rect2816-4-4-5-1-7-4-4"
           width="7.9524274"
           height="7.9524274"
           x="34.271732"
           y="56.295921"
           ry="1.8027537"
           rx="1.5774096" />
        <rect
           style="fill:#414141;fill-opacity:1;fill-rule:evenodd;stroke-width:0.0641325"
           id="rect2816-4-4-5-1-7-3-7"
           width="7.9524274"
           height="7.9524274"
           x="34.271732"
           y="64.633659"
           ry="1.8027537"
           rx="1.5774096" />
        <rect
           style="fill:#414141;fill-opacity:1;fill-rule:evenodd;stroke-width:0.0641325"
           id="rect2816-4-4-5-1-7-1-6"
           width="7.9524274"
           height="7.9524274"
           x="34.271732"
           y="72.971397"
           ry="1.8027537"
           rx="1.5774096" />
        <rect
           style="fill:#414141;fill-opacity:1;fill-rule:evenodd;stroke:none;stroke-width:0.0641325"
           id="rect2816-4-4-5-1-7-8-8"
           width="7.9524274"
           height="7.9524274"
           x="42.647846"
           y="47.958183"
           ry="1.8027537"
           rx="1.5774096" />
        <rect
           style="fill:#414141;fill-opacity:1;fill-rule:evenodd;stroke-width:0.0641325"
           id="rect2816-4-4-5-1-7-4-9-9"
           width="7.9524274"
           height="7.9524274"
           x="25.859701"
           y="56.295921"
           ry="1.8027537"
           rx="1.5774096" />
        <rect
           style="fill:#414141;fill-opacity:1;fill-rule:evenodd;stroke-width:0.0641325"
           id="rect2816-4-4-5-1-7-3-2-0"
           width="7.9524274"
           height="7.9524274"
           x="25.859701"
           y="64.633659"
           ry="1.8027537"
           rx="1.5774096" />
        <rect
           style="fill:#414141;fill-opacity:1;fill-rule:evenodd;stroke-width:0.0641325"
           id="rect2816-4-4-5-1-7-1-7-6"
           width="7.9524274"
           height="7.9524274"
           x="25.859701"
           y="72.971397"
           ry="1.8027537"
           rx="1.5774096" />
        <rect
           style="fill:#414141;fill-opacity:1;fill-rule:evenodd;stroke-width:0.0641325"
           id="rect2816-4-4-5-1-7-8-2-8"
           width="7.9524274"
           height="7.9524274"
           x="42.647846"
           y="64.520988"
           ry="1.8027537"
           rx="1.5774096" />
        <ellipse
           style="fill:#414141;fill-opacity:1;stroke-width:0.0641325"
           id="path3184-7"
           cx="29.723244"
           cy="51.652721"
           rx="3.8308518"
           ry="3.887188" />
      </g>
      <g
         transform="translate(-1.3145724e-6,1.3229162)"
         id="g1595"
         style="fill:#414141;fill-opacity:1">
        <text
           transform="scale(0.96904361,1.0319453)"
           xml:space="preserve"
           style="font-style:normal;font-variant:normal;font-weight:normal;font-stretch:normal;font-size:11.439px;line-height:1.25;font-family:Abel;-inkscape-font-specification:'Abel, Normal';font-variant-ligatures:normal;font-variant-caps:normal;font-variant-numeric:normal;font-feature-settings:normal;text-align:start;letter-spacing:0px;word-spacing:0px;writing-mode:lr-tb;text-anchor:start;fill:#414141;fill-opacity:1;stroke:none;stroke-width:0.285986"
           x="39.292068"
           y="92.43676"
           id="text830-3-9"><tspan
             sodipodi:role="line"
             x="39.292068"
             y="92.43676"
             style="font-style:normal;font-variant:normal;font-weight:bold;font-stretch:normal;font-size:11.4392px;line-height:0;font-family:'CheGuevara Barry';-inkscape-font-specification:'CheGuevara Barry, Bold';font-variant-ligatures:normal;font-variant-caps:normal;font-variant-numeric:normal;font-feature-settings:normal;text-align:center;writing-mode:lr-tb;text-anchor:middle;fill:#414141;fill-opacity:1;stroke-width:0.285986"
             id="tspan1517">INSTITUTO</tspan></text>
        <text
           transform="scale(0.96904361,1.0319453)"
           xml:space="preserve"
           style="font-style:normal;font-variant:normal;font-weight:normal;font-stretch:normal;font-size:11.439px;line-height:1.25;font-family:Abel;-inkscape-font-specification:'Abel, Normal';font-variant-ligatures:normal;font-variant-caps:normal;font-variant-numeric:normal;font-feature-settings:normal;text-align:start;letter-spacing:0px;word-spacing:0px;writing-mode:lr-tb;text-anchor:start;fill:#414141;fill-opacity:1;stroke:none;stroke-width:0.285986"
           x="39.085403"
           y="102.793"
           id="text830-3-0"><tspan
             sodipodi:role="line"
             x="39.085403"
             y="102.793"
             style="font-style:normal;font-variant:normal;font-weight:bold;font-stretch:normal;font-size:11.4392px;line-height:0;font-family:'CheGuevara Barry';-inkscape-font-specification:'CheGuevara Barry, Bold';font-variant-ligatures:normal;font-variant-caps:normal;font-variant-numeric:normal;font-feature-settings:normal;text-align:center;writing-mode:lr-tb;text-anchor:middle;fill:#414141;fill-opacity:1;stroke-width:0.285986"
             id="tspan1517-8">FEDERAL</tspan></text>
      </g>
      <text
         id="text1564"
         y="121.47309"
         x="28.609886"
         style="font-style:normal;font-weight:normal;font-size:8.89928px;line-height:1.25;font-family:sans-serif;letter-spacing:0px;word-spacing:0px;fill:#414141;fill-opacity:1;stroke:none;stroke-width:0.222482"
         xml:space="preserve"><tspan
           style="font-style:normal;font-variant:normal;font-weight:500;font-stretch:normal;font-size:8.89928px;font-family:'Terminal Dosis';-inkscape-font-specification:'Terminal Dosis, Medium';font-variant-ligatures:normal;font-variant-caps:normal;font-variant-numeric:normal;font-feature-settings:normal;text-align:start;writing-mode:lr-tb;text-anchor:start;fill:#414141;fill-opacity:1;stroke-width:0.222482"
           y="121.47309"
           x="28.609886"
           id="tspan1562"
           sodipodi:role="line">Bahia</tspan></text>
      <rect
         y="125.44372"
         x="8.6314878"
         height="1.212"
         width="59.196999"
         id="rect1585"
         style="fill:#414141;fill-opacity:1;stroke-width:0.213398" />
      <text
         id="text1564-8"
         y="137.06042"
         x="37.98526"
         style="font-style:normal;font-weight:normal;font-size:8.89928px;line-height:1.25;font-family:sans-serif;letter-spacing:0px;word-spacing:0px;fill:#414141;fill-opacity:1;stroke:none;stroke-width:0.222482"
         xml:space="preserve"><tspan
           id="tspan1615"
           style="font-style:normal;font-variant:normal;font-weight:500;font-stretch:normal;font-size:8.89917px;line-height:0;font-family:'Terminal Dosis';-inkscape-font-specification:'Terminal Dosis, Medium';font-variant-ligatures:normal;font-variant-caps:normal;font-variant-numeric:normal;font-feature-settings:normal;text-align:center;writing-mode:lr-tb;text-anchor:middle;fill:#414141;fill-opacity:1;stroke-width:0.222482"
           y="137.06042"
           x="37.98526"
           sodipodi:role="line">Campus Salvador</tspan></text>
    </g>
    <g
       id="_x23_000000ff"
       transform="matrix(0.11561521,0,0,0.11561521,112.95547,241.26542)"
       style="fill:#414141;fill-opacity:1">
      <path
         id="path2"
         d="m 394.35,44.79 c 21.16,20.7 38.44,45.47 50.23,72.64 7.81,18.17 12.68,37.67 13.62,57.45 3.58,40.35 -10.1,80.37 -30.96,114.44 -4.12,6.69 -8.54,13.21 -13.42,19.36 -19.05,-19.07 -35.09,-41.2 -47.23,-65.27 -11.82,-23.94 -19.92,-50.49 -18.56,-77.43 1.32,-32.98 12.44,-64.92 28.36,-93.6 5.38,-9.57 11.26,-18.88 17.96,-27.59 z"
         stroke-width="0.0938"
         stroke="#000000"
         style="fill:#414141;fill-opacity:1" />
      <path
         id="path4"
         d="m 619.01,120.96 c 6.49,-22.5 23.23,-40.73 42.61,-53.18 7.75,17.5 11.23,37.38 7.35,56.3 -2.85,14.35 -11.37,26.97 -21.81,36.97 -6.83,6.53 -14.5,12.2 -22.83,16.68 -8.14,-17.54 -10.86,-38.06 -5.32,-56.77 z"
         stroke-width="0.0938"
         stroke="#000000"
         style="fill:#414141;fill-opacity:1" />
      <path
         id="path6"
         d="m 472.1,123.1 c 4.64,-21.02 18.62,-38.93 35.49,-51.79 8.68,15.38 14.42,32.9 13.96,50.7 -0.63,11.27 -3.46,22.54 -9.11,32.37 -7.28,12.79 -17.75,23.61 -29.63,32.21 -10.17,-19.25 -15.04,-41.93 -10.71,-63.49 z"
         stroke-width="0.0938"
         stroke="#000000"
         style="fill:#414141;fill-opacity:1" />
      <path
         id="path8"
         d="m 280.27,144.94 c -12.94,-19.34 -14.64,-44.27 -9.83,-66.54 12.2,4.17 23.86,10.13 34.04,18.08 9.01,7.09 16.94,16.04 21.06,26.87 7,17.76 7.17,37.62 3.41,56.14 -18.97,-6.58 -37.12,-17.79 -48.68,-34.55 z"
         stroke-width="0.0938"
         stroke="#000000"
         style="fill:#414141;fill-opacity:1" />
      <path
         id="path10"
         d="m 567.2,100.18 c 5.81,-5.24 11.88,-10.19 18.28,-14.69 8.57,16.31 14.67,33.91 18.32,51.97 4.41,22.43 4.56,46.25 -3.16,68 -9.32,26.91 -26.92,50.35 -47.99,69.24 -5.86,5.22 -11.9901,10.15 -18.52,14.51 -8.79,-15.94 -15.05,-33.24 -18.8,-51.04 -4.63,-22.42 -4.68,-46.25 2.89,-68.05 9.5,-27.27 27.77,-50.69 48.98,-69.94 z"
         stroke-width="0.0938"
         stroke="#000000"
         style="fill:#414141;fill-opacity:1" />
      <path
         id="path12"
         d="m 753.67,153.7 c 16.14,-8.83 34.91,-11.68 53.11,-11.53 -3.66,18.55 -11.94,36.7 -25.78,49.85 -7.24,6.25 -14.51,12.71 -23.25,16.83 -13.35,6.59 -28.33,9.6 -43.19,9.58 2.93,-15.63 8.84,-30.78 17.73,-43.98 5.66,-8.22 12.44,-16.03 21.38,-20.75 z"
         stroke-width="0.0938"
         stroke="#000000"
         style="fill:#414141;fill-opacity:1" />
      <path
         id="path14"
         d="m 199.64,149.24 c 34.43,4.24 68.35,15.05 97.97,33.28 16.03,10.05 30.87,22.46 42,37.88 16.63,22.7 26.64,49.65 32.19,77.08 3.04,15.32 4.84,30.91 4.93,46.54 -28.65,-3.48 -56.75,-12.08 -82.31,-25.53 -30.71,-16.12 -56.45,-41.8 -72.05,-72.83 -14.9,-29.8 -22.2,-63.19 -22.73,-96.42 z"
         stroke-width="0.0938"
         stroke="#000000"
         style="fill:#414141;fill-opacity:1" />
      <path
         id="path16"
         d="m 650.82,178.78 c 14.41,-10.76 29.82,-20.28 46.18,-27.79 5.57,17.89 8.81,36.47 10.22,55.14 1.76,24.8 -0.17,50.13 -8.04,73.81 -5.28,15.56 -12.77,30.43 -22.7,43.55 -16.45,21.88 -38.08,39.47 -61.54,53.37 -8.38,4.93 -17.02,9.43 -25.97,13.21 -6.28,-19.41 -9.77,-39.68 -10.95,-60.02 -1.5,-27.8 1.88,-56.3 12.92,-82.03 13.56,-27.77 35.36,-50.78 59.88,-69.24 z"
         stroke-width="0.0938"
         stroke="#000000"
         style="fill:#414141;fill-opacity:1" />
      <path
         id="path18"
         d="m 774,222.82 c 24.59,-11.3 51.75,-16.75 78.76,-16.92 -2.23,16.23 -6.54,32.16 -12.52,47.4 -7.16,18.06 -17.08,35.26 -30.68,49.26 -19.97,20.45 -46.98,32.72 -74.63,38.73 -13.07,2.82 -26.43,4.52 -39.82,4.47 4.37,-34.57 17.35,-68.83 40.51,-95.23 10.35,-12.16 24.06,-20.93 38.38,-27.71 z"
         stroke-width="0.0938"
         stroke="#000000"
         style="fill:#414141;fill-opacity:1" />
      <path
         id="path20"
         d="m 442.99,285.11 c 7.31,-27.43 24.31,-51.55 45.17,-70.45 10.31,15.36 18.16,32.41 22.96,50.29 5.22,19.51 6.03,40.57 -0.2,59.96 -8.08,25.35 -24.42,47.48 -44.02,65.18 -9.93,-15.58 -17.57,-32.66 -22.39,-50.5 -4.65,-17.68 -6.48,-36.65 -1.52,-54.48 z"
         stroke-width="0.0938"
         stroke="#000000"
         style="fill:#414141;fill-opacity:1" />
      <path
         id="path22"
         d="m 59.81,239.5 c 18.26,-5.16 37.22,-7.8 56.19,-8.13 16.61,-0.19 33.34,1.61 49.26,6.5 14.46,4.14 27.22,12.68 38.7,22.19 21.03,18.01 37.48,41.11 48.94,66.24 -15.2,4.75 -31.01,7.48 -46.89,8.55 -20.4,1.3 -41.24,-0.5 -60.61,-7.3 C 122.43,319.32 103.21,302.98 87.78,284.42 76.58,270.74 67.01,255.66 59.81,239.5 Z"
         stroke-width="0.0938"
         stroke="#000000"
         style="fill:#414141;fill-opacity:1" />
      <path
         id="path24"
         d="m 516.97,353.04 c 7.82,-19.89 24.0601,-35.38 42.01,-46.37 7.94,20.39 10.43,43.7 3.24,64.67 -7.5,19.89 -24.02,35.14 -42.27,45.31 -8.22,-19.96 -10.35,-43.07 -2.98,-63.61 z"
         stroke-width="0.0938"
         stroke="#000000"
         style="fill:#414141;fill-opacity:1" />
      <path
         id="path26"
         d="m 219.04,347.48 c 24.77,-10.37 52.17,-15.77 79,-12.48 24.18,2.76 45.59,16.51 62.87,32.99 10.09,9.77 19.12,20.68 26.48,32.65 -20.61,8.65 -42.92,13.79 -65.34,13.42 -21.48,-0.32 -42.61,-7.66 -60.09,-20.03 -17.37,-12.27 -31.9,-28.41 -42.92,-46.55 z"
         stroke-width="0.0938"
         stroke="#000000"
         style="fill:#414141;fill-opacity:1" />
      <path
         id="path28"
         d="m 396.09,383.83 c -5.42,-16.25 -5.25,-33.97 -1.77,-50.61 19.64,6.9 38.54,18.67 49.92,36.52 12.22,18.98 12.98,43.04 8.58,64.58 -13.41,-4.79 -25.97,-12.08 -36.61,-21.56 -8.76,-7.94 -16.41,-17.57 -20.12,-28.93 z"
         stroke-width="0.0938"
         stroke="#000000"
         style="fill:#414141;fill-opacity:1" />
      <path
         id="path30"
         d="m 756.84,346.81 c 18.3799,-7.7 38.31,-11.26 58.18,-11.84 27.77,-0.69 55.66,3.67 82,12.47 -12.69,27.05 -30.47,51.81 -52.39,72.14 -14.47,13.29 -31.09,24.41 -49.39,31.68 -31.69,12.61 -66.82,14.31 -100.32,9.54 -13.12,-1.91 -26.13,-4.71 -38.74,-8.83 12.68,-28.46 31.26,-54.38 54.34,-75.33 13.73,-12.3 29.3,-22.67 46.32,-29.83 z"
         stroke-width="0.0938"
         stroke="#000000"
         style="fill:#414141;fill-opacity:1" />
      <path
         id="path32"
         d="m 70.09,340.58 c 20.36,-4.15 41.37,-5.68 62.05,-3.32 15.66,1.75 30.98,6.07 45.47,12.23 27.29,11.89 50.59,31.51 69.77,54.05 8.59,10.18 16.5,20.96 23.21,32.48 -22.07,9.91 -45.68,16.33 -69.67,19.36 -19.25,2.36 -38.89,2.24 -57.98,-1.35 -28.73,-5.09 -54.52,-20.8 -75.95,-40.1 C 48.77,397.27 33.02,377.81 20.88,356.3 36.6,349.19 53.2,344.08 70.09,340.58 Z"
         stroke-width="0.0938"
         stroke="#000000"
         style="fill:#414141;fill-opacity:1" />
      <path
         id="path34"
         d="m 644.79,382.72 c 10.13,-2.46 20.58,-3.58 31,-3.45 -3.4,18.04 -10.42,35.94 -22.85,49.71 -17.01,18.34 -43.05,26.1 -67.56,24.78 2.65,-18.33 9.61,-36.46 21.96,-50.47 9.55,-11.07 23.54,-17.09 37.45,-20.57 z"
         stroke-width="0.0938"
         stroke="#000000"
         style="fill:#414141;fill-opacity:1" />
      <path
         id="path36"
         d="m 463.24,444.05 c -0.23,-23.92 12.06,-46.34 28.46,-63.06 10.98,14.78 18.94,32.43 19.82,51.02 0.21,10.92 -1.3,21.98 -5.41,32.14 -5.12,12.84 -13.24,24.42 -23.27,33.9 -10.95,-15.88 -19.11,-34.48 -19.6,-54 z"
         stroke-width="0.0938"
         stroke="#000000"
         style="fill:#414141;fill-opacity:1" />
      <path
         id="path38"
         d="m 531.16,427.16 c 11.9301,-19.02 33.09,-30.26 54.3701,-35.52 1.23,21.52 -2.33,44.22 -14.4301,62.46 -12.38,17.89 -32.45,28.99 -52.93,35.07 -1.13,-21.23 1.84,-43.54 12.99,-62.01 z"
         stroke-width="0.0938"
         stroke="#000000"
         style="fill:#414141;fill-opacity:1" />
      <path
         id="path40"
         d="m 899.85,397.35 c 11.88,-2.25 24.17,-2.29 36.11,-0.36 -5.13,17.44 -13.92,34.22 -27.29,46.74 -8.97,8.47 -20.5,13.91 -32.52,16.4 -12.39,2.59 -25.2401,2.66 -37.72,0.7 5.05,-17.29 13.76,-33.92 26.92,-46.43 9.44,-9.02 21.73,-14.67 34.5,-17.05 z"
         stroke-width="0.0938"
         stroke="#000000"
         style="fill:#414141;fill-opacity:1" />
      <path
         id="path42"
         d="m 364.15,418.27 c 21,-2.29 43.5,1.19 61.13,13.43 18.61,12.35 30.23,32.87 36.41,53.9 -21.16,1.18 -43.41,-2.23 -61.52,-13.82 -18.45,-12.27 -29.76,-32.73 -36.02,-53.51 z"
         stroke-width="0.0938"
         stroke="#000000"
         style="fill:#414141;fill-opacity:1" />
      <path
         id="path44"
         d="m 275.66,439.48 c 18.02,-8 38.61,-11.46 58.01,-6.98 14.44,3.27 26.83,12.49 36.51,23.42 6.04,6.86 11.31,14.44 15.43,22.6 -18.82,6.9 -40.02,9.53 -59.39,3.38 -21.61,-6.9 -38.52,-23.73 -50.56,-42.42 z"
         stroke-width="0.0938"
         stroke="#000000"
         style="fill:#414141;fill-opacity:1" />
      <path
         id="path46"
         d="m 13.81,453.61 c 19.39,-9.63 41.85,-15.15 63.39,-10.67 21.02,5.74 38.85,20.14 51.85,37.3 -19.42,10.27 -42.08,15.84 -64,12.33 C 43.9,486.55 26.28,471.35 13.81,453.61 Z"
         stroke-width="0.0938"
         stroke="#000000"
         style="fill:#414141;fill-opacity:1" />
      <path
         id="path48"
         d="m 567.67,474.88 c 25.97,-12.09 55.86,-17.87 84.16,-11.65 11.06,2.89 22.16,6.1 32.24,11.61 21.34,11.51 39,29.24 51.94,49.63 -19.18,8.84 -39.97,14.4301 -61.07,15.7 -15.13,0.64 -30.91,-0.47 -44.66,-7.33 -26.12,-12.4 -47.28,-33.71 -62.61,-57.96 z"
         stroke-width="0.0938"
         stroke="#000000"
         style="fill:#414141;fill-opacity:1" />
      <path
         id="path50"
         d="m 774.59,471.38 c 20.59,-5.72 42.95,-5.75 63.29,1.07 22.25,7.72 41.78,22.17 57.39,39.64 -14.74,9.79 -30.97,17.3799 -47.98,22.24 -16.91,4.7 -35.14,6.63 -52.25,1.82 -26.12,-6.9901 -49.31,-22.65 -68.12,-41.79 14.36,-10.39 30.58,-18.26 47.67,-22.98 z"
         stroke-width="0.0938"
         stroke="#000000"
         style="fill:#414141;fill-opacity:1" />
      <path
         id="path52"
         d="m 171.26,489.05 c 20.4,-11.55 43.22,-19.38 66.69,-20.99 21.03,-1.47 42.29,3.92 60.49,14.45 17.47,10.1 32.75,23.97 44.71,40.21 -16.81,9.58 -35.27,16.41 -54.37,19.6 -20.45,3.54 -41.91,1.21 -60.95,-7.14 -22.56,-9.9 -41.93,-26.43 -56.57,-46.13 z"
         stroke-width="0.0938"
         stroke="#000000"
         style="fill:#414141;fill-opacity:1" />
      <path
         id="path54"
         d="m 386.05,487.45 c 12.14,-3.18 25.1,-2.32 36.99,1.52 14.43,4.64 27.58,12.86 38.7,23.1 -15.1,12.92 -33.72,22.49 -53.67,24.51 -24.1,2.32 -47.28,-9.21 -65.17,-24.5 12.26,-11.3 26.9,-20.45 43.15,-24.63 z"
         stroke-width="0.0938"
         stroke="#000000"
         style="fill:#414141;fill-opacity:1" />
      <path
         id="path56"
         d="m 493.33,504.97 c 19.46,-9.22 41.89,-14.26 63.23,-9.49 21.73,4.63 39.49,20.12 52.04,37.85 -16.71,8.39 -35.78,13.01 -54.5,10.75 -9.33,-1.51 -18.7599,-3.56 -27.08,-8.22 -13.5,-7.4 -24.72,-18.47 -33.69,-30.89 z"
         stroke-width="0.0938"
         stroke="#000000"
         style="fill:#414141;fill-opacity:1" />
      <path
         id="path58"
         d="m 479.26,506.65 c 13.68,12.01 25.34,27.21 30.34,44.94 2.05,8.97 3.7,18.19 3,27.44 -1.03,15.14 -6.13,29.86 -13.81,42.89 -13.88,-11.31 -25.56,-25.76 -32.2,-42.49 -2.75,-6.79 -4.3,-14.08 -4.11,-21.42 0.17,-18.33 6.97,-36.08 16.78,-51.36 z"
         stroke-width="0.0938"
         stroke="#000000"
         style="fill:#414141;fill-opacity:1" />
      <path
         id="path60"
         d="m 80.62,515.48 c 11.07,-3.88 22.56,-7.12 34.36,-7.5 23.35,-0.88 46.56,5.67 67.13,16.44 -8.62,12.65 -19.07,24.04 -30.82,33.85 -12.46,10.29 -26.71,18.8 -42.4,22.99 -17.38,4.06 -35.61,2.86 -52.89,-1.08 -12.75,-2.97 -25.19,-7.36 -36.92,-13.21 15.44,-22.11 36.18,-41.5 61.54,-51.49 z"
         stroke-width="0.0938"
         stroke="#000000"
         style="fill:#414141;fill-opacity:1" />
      <path
         id="path62"
         d="m 401.26,565.27 c 12.22,-17.99 32.64,-28.75 53.34,-33.82 1.17,21.37 -2.28,43.92 -14.23,62.08 -13.16,17.72 -33.86,28.47 -54.95,33.66 -1.14,-21.52 3.11,-44.14 15.84,-61.92 z"
         stroke-width="0.0938"
         stroke="#000000"
         style="fill:#414141;fill-opacity:1" />
      <path
         id="path64"
         d="m 330.3,549.3 c 21.39,-12.44 47.74,-13.6 71.25,-7.21 -7.98,16.97 -19.86,32.53 -35.59,42.99 -10.23,7.01 -22.64,10.11 -34.9,10.76 -12.08,0.64 -24.24,-0.89 -35.9,-4.06 7.14,-17.15 18.93,-32.97 35.14,-42.48 z"
         stroke-width="0.0938"
         stroke="#000000"
         style="fill:#414141;fill-opacity:1" />
      <path
         id="path66"
         d="m 863.2,545.63 c 17.04,-3.53 35.12,-4.11 51.89,1.07 12.24,3.67 22.49,11.99 30.74,21.52 8.64,10.11 15.41,21.78 20.21,34.17 -21.72,4.36 -45.44,3.39 -65.37,-7.02 C 883,583.68 870.69,565.19 863.2,545.63 Z"
         stroke-width="0.0938"
         stroke="#000000"
         style="fill:#414141;fill-opacity:1" />
      <path
         id="path68"
         d="m 576.5,556.27 c 19.43,-10.21 42.63,-14.43 64.09,-8.8 21.02,5.35 38.18,20.36 51.19,37.17 -19.47,9.73 -42.27,14.25 -63.73,9.35 -21.54,-4.69 -39.1,-20.13 -51.55,-37.72 z"
         stroke-width="0.0938"
         stroke="#000000"
         style="fill:#414141;fill-opacity:1" />
      <path
         id="path70"
         d="m 682.7,556.26 c 22.41,-6.99 45.89,-10.56 69.35,-10.77 32.12,-0.34 65.11,6.57 92.3,24.26 25.88,16.56 46.76,39.97 63.3,65.66 5.92,9.27 11.33,18.88 15.92,28.89 -26.99,8.25 -55.44,11.89 -83.63,10.5 -21.02,-1.15 -42.01,-5.62 -61.11,-14.61 C 752.2,647.99 729.77,628 711.94,604.99 700.37,589.95 690.33,573.66 682.7,556.26 Z"
         stroke-width="0.0938"
         stroke="#000000"
         style="fill:#414141;fill-opacity:1" />
      <path
         id="path72"
         d="m 519.93,547.38 c 20.38,1.96 40.82,9.52 55.79,23.82 16.4301,15.05 23.08,37.86 24,59.52 -20.39,-1.92 -41.52,-8.29 -56.54,-22.85 -15.13,-16.23 -22.27,-38.63 -23.25,-60.49 z"
         stroke-width="0.0938"
         stroke="#000000"
         style="fill:#414141;fill-opacity:1" />
      <path
         id="path74"
         d="m 163.81,572.85 c 29.52,-15.04 63.27,-19.92 96.11,-18.88 12.47,0.44 24.94,1.64 37.19,4.07 -9.61,31.45 -25.21,61.34 -46.88,86.19 -12.83,14.46 -27.99,27.18 -45.52,35.53 -31.52,15.13 -67.04,19.94 -101.71,19.08 -10.31,-0.3 -20.61,-1.1 -30.8,-2.67 9.6,-31.49 25.13,-61.39 46.47,-86.54 12.75,-14.73 27.71,-27.89 45.14,-36.78 z"
         stroke-width="0.0938"
         stroke="#000000"
         style="fill:#414141;fill-opacity:1" />
      <path
         id="path76"
         d="m 437.11,625.09 c 5.16,-11.26 11.53,-21.9901 19.18,-31.7401 10.66,10.4 19.75,22.39 27.07,35.35 8.82,15.66 14.74,33.2 15.46,51.25 1.33,18.18 -2.81,36.39 -9.86,53.08 -5.7,13.39 -13.08,26.08 -22.05,37.53 -16.64,-17.2 -29.76,-38.14 -36.56,-61.17 -3.38,-11.14 -4.32,-22.82 -4.72,-34.39 -0.22,-17.2599 4.38,-34.2799 11.48,-49.9099 z"
         stroke-width="0.0938"
         stroke="#000000"
         style="fill:#414141;fill-opacity:1" />
      <path
         id="path78"
         d="m 519.98,598.66 c 13.54,9.15 25.14,21.78 31.39,37.02 3.12,7.37 4.03,15.39 5.29,23.23 1.98,19.01 -3.35,38.13 -11.86,55.02 -11.72,-9.58 -22.07,-21.03 -29.61,-34.2 -4.4,-7.94 -8.05,-16.61 -8.43,-25.79 -1.21,-19.22 4.22,-38.42 13.22,-55.28 z"
         stroke-width="0.0938"
         stroke="#000000"
         style="fill:#414141;fill-opacity:1" />
      <path
         id="path80"
         d="m 329.02,608.11 c 14.48,-3.15 29.36,-4.58 44.18,-4.08 -2.97,14.95 -8.16,29.4399 -15.01,43.05 -8.13,15.99 -19.02,30.78 -32.99,42.14 -13.79,11.1201 -30.48,18.16 -47.62,22.19 -13.93,3.23 -28.28,4.73 -42.57,4.2401 2.45,-15.22 7.04,-30.09 13.53,-44.06 7.48,-16.02 17.92,-30.96 31.92,-41.9301 14.12,-11.03 31.18,-17.7 48.56,-21.55 z"
         stroke-width="0.0938"
         stroke="#000000"
         style="fill:#414141;fill-opacity:1" />
      <path
         id="path82"
         d="m 608.39,609.32 c 20.2,-4.68 41.41,-5.36 61.81,-1.51 20.49,3.85 39.98,13.34 55.25,27.6 16.75,15.69 29.25,35.72 37.08,57.23 -20.96,5.56 -43.26,6.77 -64.54,2.32 -15.64,-3.19 -30.18,-10.5 -43.07,-19.77 -21.84,-16.45 -37.43,-40.29 -46.53,-65.87 z"
         stroke-width="0.0938"
         stroke="#000000"
         style="fill:#414141;fill-opacity:1" />
      <path
         id="path84"
         d="m 391.63,637.58 c 8.56,-5.37 17.86,-9.55 27.57,-12.35 2.86,18.52 1.58,38.28 -6.73,55.31 -3.95,7.38 -8.41,14.63 -14.4,20.54 -11.26,11.26 -25.75,18.98 -40.95,23.45 -2.71,-17.39 -2.17,-35.71 4.12,-52.3 5.54,-14.76 17.25,-26.38 30.39,-34.65 z"
         stroke-width="0.0938"
         stroke="#000000"
         style="fill:#414141;fill-opacity:1" />
      <path
         id="path86"
         d="m 571.26,637.63 c 30.82,11.02 59.74,27.96 83.57,50.48 13.69,13.08 25.41,28.35 33.63,45.45 13.38,27.71 18.09,58.91 17.35,89.47 -0.42,15.06 -1.99,30.12 -5.27,44.84 -24.96,-8.83 -48.57,-21.6 -69.55,-37.77 -15.86,-12.35 -30.12,-26.99 -40.83,-44.0699 -16.06,-25.9901 -22.86,-56.7401 -24.04,-87 -0.74,-20.5701 0.85,-41.2601 5.14,-61.4001 z"
         stroke-width="0.0938"
         stroke="#000000"
         style="fill:#414141;fill-opacity:1" />
      <path
         id="path88"
         d="m 764.07,706.7 c 16.71,-7.98 35.23,-13.24 53.89,-12.12 10.32,0.5 20.09,4.51 28.98,9.55 12.64,7.37 23.66,17.45 32.42,29.16 -12.38,6.93 -26.17,11.52 -40.34,12.71 -11.72,1.07 -23.57,-1.21 -34.46,-5.52 -16.48,-6.9 -30.22,-19.33 -40.49,-33.78 z"
         stroke-width="0.0938"
         stroke="#000000"
         style="fill:#414141;fill-opacity:1" />
      <path
         id="path90"
         d="m 152.47,713.68 c 18.52,-14.88 43.99,-17.64 66.81,-14.06 -5.36,18 -14.52,35.4 -28.71,47.98 -9.4,8.58 -21.98,12.65 -34.35,14.52 -11.43,1.61 -23.1,1.39 -34.48,-0.46 5.65,-18.32 15.7,-35.79 30.73,-47.98 z"
         stroke-width="0.0938"
         stroke="#000000"
         style="fill:#414141;fill-opacity:1" />
      <path
         id="path92"
         d="m 379.39,727.39 c 8.17,-5.21 16.71,-9.88 25.64,-13.68 5.59,18.19 8.35,37.22 8.47,56.24 0.04,23.49 -4.76,47.41 -16.67,67.86 -14.28,24.68 -36.63,43.81 -61.2,57.79 -6.2,3.52 -12.59,6.72 -19.2,9.42 -4.73,-16.9 -7.05,-34.45 -7.26,-51.98 -0.15,-23.12 3.94,-46.64 14.62,-67.31 12.49,-24.26 32.79,-43.74 55.6,-58.34 z"
         stroke-width="0.0938"
         stroke="#000000"
         style="fill:#414141;fill-opacity:1" />
      <path
         id="path94"
         d="m 252.11,731.15 c 24.97,-11.58 53.06,-15.77 80.41,-13.86 -2.91,16.91 -8.14,33.42 -15.33,48.9901 -7.31,15.68 -16.89,30.47 -29.29,42.62 -10.88,10.49 -23.15,19.71 -37.02,25.89 -25.34,11.44 -53.71,15.44 -81.33,13.58 5.94,-32.89 19.89,-65.21 43.55,-89.26 C 224.72,748.06 237.44,737.85 252.11,731.15 Z"
         stroke-width="0.0938"
         stroke="#000000"
         style="fill:#414141;fill-opacity:1" />
      <path
         id="path96"
         d="m 709.29,717.26 c 30.93,4.69 61.56,18.2 82.58,41.92 10.53,11.62 17.31,26.18 21.53,41.17 3.8199,13.89 5.8,28.31 5.71,42.72 -25.97,-2.91 -51.92,-12.09 -71.92,-29.29 -11.92,-10.53 -21.48,-23.7401 -27.56,-38.45 -7.59,-18.3 -10.94,-38.3 -10.34,-58.07 z"
         stroke-width="0.0938"
         stroke="#000000"
         style="fill:#414141;fill-opacity:1" />
      <path
         id="path98"
         d="m 497.36,761.35 c 6.88,-15.69 15.62,-30.61 26.17,-44.12 24.6899,24.83 44.0099,56.05 51.14,90.6 4.02,17.74 1.57,36.22 -3.03,53.59 -6.85,24.67 -18.73,47.85 -33.93,68.4 -20.02,-19.97 -36.11,-44.16 -45.69,-70.82 -4.07,-11.61 -6.87,-23.73 -7.58,-36.02 -0.84,-21.23 4.52,-42.27 12.92,-61.63 z"
         stroke-width="0.0938"
         stroke="#000000"
         style="fill:#414141;fill-opacity:1" />
      <path
         id="path100"
         d="m 420.37,810.1 c 5.35,-15.34 15.36,-28.7 27.07,-39.79 10.15,16.08 16.76,34.66 17.76,53.72 0.96,13.11 -3.46,26 -9.71,37.35 -5.42,9.64 -12.34,18.45 -20.45,25.98 -11.52,-15.57 -19.08,-34.72 -18.48,-54.28 0.56,-7.75 1.21,-15.61 3.81,-22.98 z"
         stroke-width="0.0938"
         stroke="#000000"
         style="fill:#414141;fill-opacity:1" />
      <path
         id="path102"
         d="m 596.43,871.12 c -1.58,-13.58 -0.3,-27.42 3.15,-40.62 15.72,6.6 30,17.12 40.13,30.92 7.02,9.48 11.49,20.76 12.91,32.48 1.89,14.95 0.43,30.23 -3.39,44.77 -12.06,-6.24 -23.27,-14.29 -32.57,-24.23 -11.1,-11.8 -18.4,-27.2 -20.23,-43.32 z"
         stroke-width="0.0938"
         stroke="#000000"
         style="fill:#414141;fill-opacity:1" />
    </g>
  </g>
</svg>
